{
	"RespawnWindow_title": "Вы умерли",
	"RespawnWindow_message": "Хотите повторить?",
	"RespawnWindow_buttonOk": "Да",
	"SettingWindow_title": "Выберите язык",
	"SettingWindow_buttonOk": "Да",
	"Reload_gun": "Перезарядка оружия"
}